Relogio/simulation/qsim/Relogio.msim.vcd
$comment
	File created using the following command:
		vcd file Relogio.msim.vcd -direction
$end
$date
	Tue Oct 08 09:50:10 2019
$end
$version
	ModelSim Version 10.5b
$end
$timescale
	1ps
$end

$scope module toplevel_vhd_vec_tst $end
$var wire 1 ! CLOCK_50 $end
$var wire 1 " HEX0 [6] $end
$var wire 1 # HEX0 [5] $end
$var wire 1 $ HEX0 [4] $end
$var wire 1 % HEX0 [3] $end
$var wire 1 & HEX0 [2] $end
$var wire 1 ' HEX0 [1] $end
$var wire 1 ( HEX0 [0] $end
$var wire 1 ) HEX1 [6] $end
$var wire 1 * HEX1 [5] $end
$var wire 1 + HEX1 [4] $end
$var wire 1 , HEX1 [3] $end
$var wire 1 - HEX1 [2] $end
$var wire 1 . HEX1 [1] $end
$var wire 1 / HEX1 [0] $end
$var wire 1 0 HEX2 [6] $end
$var wire 1 1 HEX2 [5] $end
$var wire 1 2 HEX2 [4] $end
$var wire 1 3 HEX2 [3] $end
$var wire 1 4 HEX2 [2] $end
$var wire 1 5 HEX2 [1] $end
$var wire 1 6 HEX2 [0] $end
$var wire 1 7 HEX3 [6] $end
$var wire 1 8 HEX3 [5] $end
$var wire 1 9 HEX3 [4] $end
$var wire 1 : HEX3 [3] $end
$var wire 1 ; HEX3 [2] $end
$var wire 1 < HEX3 [1] $end
$var wire 1 = HEX3 [0] $end
$var wire 1 > HEX4 [6] $end
$var wire 1 ? HEX4 [5] $end
$var wire 1 @ HEX4 [4] $end
$var wire 1 A HEX4 [3] $end
$var wire 1 B HEX4 [2] $end
$var wire 1 C HEX4 [1] $end
$var wire 1 D HEX4 [0] $end
$var wire 1 E HEX5 [6] $end
$var wire 1 F HEX5 [5] $end
$var wire 1 G HEX5 [4] $end
$var wire 1 H HEX5 [3] $end
$var wire 1 I HEX5 [2] $end
$var wire 1 J HEX5 [1] $end
$var wire 1 K HEX5 [0] $end
$var wire 1 L HEX6 [6] $end
$var wire 1 M HEX6 [5] $end
$var wire 1 N HEX6 [4] $end
$var wire 1 O HEX6 [3] $end
$var wire 1 P HEX6 [2] $end
$var wire 1 Q HEX6 [1] $end
$var wire 1 R HEX6 [0] $end
$var wire 1 S HEX7 [6] $end
$var wire 1 T HEX7 [5] $end
$var wire 1 U HEX7 [4] $end
$var wire 1 V HEX7 [3] $end
$var wire 1 W HEX7 [2] $end
$var wire 1 X HEX7 [1] $end
$var wire 1 Y HEX7 [0] $end
$var wire 1 Z KEY [3] $end
$var wire 1 [ KEY [2] $end
$var wire 1 \ KEY [1] $end
$var wire 1 ] KEY [0] $end
$var wire 1 ^ LEDG [7] $end
$var wire 1 _ LEDG [6] $end
$var wire 1 ` LEDG [5] $end
$var wire 1 a LEDG [4] $end
$var wire 1 b LEDG [3] $end
$var wire 1 c LEDG [2] $end
$var wire 1 d LEDG [1] $end
$var wire 1 e LEDG [0] $end
$var wire 1 f LEDR [17] $end
$var wire 1 g LEDR [16] $end
$var wire 1 h LEDR [15] $end
$var wire 1 i LEDR [14] $end
$var wire 1 j LEDR [13] $end
$var wire 1 k LEDR [12] $end
$var wire 1 l LEDR [11] $end
$var wire 1 m LEDR [10] $end
$var wire 1 n LEDR [9] $end
$var wire 1 o LEDR [8] $end
$var wire 1 p LEDR [7] $end
$var wire 1 q LEDR [6] $end
$var wire 1 r LEDR [5] $end
$var wire 1 s LEDR [4] $end
$var wire 1 t LEDR [3] $end
$var wire 1 u LEDR [2] $end
$var wire 1 v LEDR [1] $end
$var wire 1 w LEDR [0] $end
$var wire 1 x SW [17] $end
$var wire 1 y SW [16] $end
$var wire 1 z SW [15] $end
$var wire 1 { SW [14] $end
$var wire 1 | SW [13] $end
$var wire 1 } SW [12] $end
$var wire 1 ~ SW [11] $end
$var wire 1 !! SW [10] $end
$var wire 1 "! SW [9] $end
$var wire 1 #! SW [8] $end
$var wire 1 $! SW [7] $end
$var wire 1 %! SW [6] $end
$var wire 1 &! SW [5] $end
$var wire 1 '! SW [4] $end
$var wire 1 (! SW [3] $end
$var wire 1 )! SW [2] $end
$var wire 1 *! SW [1] $end
$var wire 1 +! SW [0] $end

$scope module i1 $end
$var wire 1 ,! gnd $end
$var wire 1 -! vcc $end
$var wire 1 .! unknown $end
$var wire 1 /! devoe $end
$var wire 1 0! devclrn $end
$var wire 1 1! devpor $end
$var wire 1 2! ww_devoe $end
$var wire 1 3! ww_devclrn $end
$var wire 1 4! ww_devpor $end
$var wire 1 5! ww_KEY [3] $end
$var wire 1 6! ww_KEY [2] $end
$var wire 1 7! ww_KEY [1] $end
$var wire 1 8! ww_KEY [0] $end
$var wire 1 9! ww_SW [17] $end
$var wire 1 :! ww_SW [16] $end
$var wire 1 ;! ww_SW [15] $end
$var wire 1 <! ww_SW [14] $end
$var wire 1 =! ww_SW [13] $end
$var wire 1 >! ww_SW [12] $end
$var wire 1 ?! ww_SW [11] $end
$var wire 1 @! ww_SW [10] $end
$var wire 1 A! ww_SW [9] $end
$var wire 1 B! ww_SW [8] $end
$var wire 1 C! ww_SW [7] $end
$var wire 1 D! ww_SW [6] $end
$var wire 1 E! ww_SW [5] $end
$var wire 1 F! ww_SW [4] $end
$var wire 1 G! ww_SW [3] $end
$var wire 1 H! ww_SW [2] $end
$var wire 1 I! ww_SW [1] $end
$var wire 1 J! ww_SW [0] $end
$var wire 1 K! ww_CLOCK_50 $end
$var wire 1 L! ww_LEDR [17] $end
$var wire 1 M! ww_LEDR [16] $end
$var wire 1 N! ww_LEDR [15] $end
$var wire 1 O! ww_LEDR [14] $end
$var wire 1 P! ww_LEDR [13] $end
$var wire 1 Q! ww_LEDR [12] $end
$var wire 1 R! ww_LEDR [11] $end
$var wire 1 S! ww_LEDR [10] $end
$var wire 1 T! ww_LEDR [9] $end
$var wire 1 U! ww_LEDR [8] $end
$var wire 1 V! ww_LEDR [7] $end
$var wire 1 W! ww_LEDR [6] $end
$var wire 1 X! ww_LEDR [5] $end
$var wire 1 Y! ww_LEDR [4] $end
$var wire 1 Z! ww_LEDR [3] $end
$var wire 1 [! ww_LEDR [2] $end
$var wire 1 \! ww_LEDR [1] $end
$var wire 1 ]! ww_LEDR [0] $end
$var wire 1 ^! ww_LEDG [7] $end
$var wire 1 _! ww_LEDG [6] $end
$var wire 1 `! ww_LEDG [5] $end
$var wire 1 a! ww_LEDG [4] $end
$var wire 1 b! ww_LEDG [3] $end
$var wire 1 c! ww_LEDG [2] $end
$var wire 1 d! ww_LEDG [1] $end
$var wire 1 e! ww_LEDG [0] $end
$var wire 1 f! ww_HEX0 [6] $end
$var wire 1 g! ww_HEX0 [5] $end
$var wire 1 h! ww_HEX0 [4] $end
$var wire 1 i! ww_HEX0 [3] $end
$var wire 1 j! ww_HEX0 [2] $end
$var wire 1 k! ww_HEX0 [1] $end
$var wire 1 l! ww_HEX0 [0] $end
$var wire 1 m! ww_HEX1 [6] $end
$var wire 1 n! ww_HEX1 [5] $end
$var wire 1 o! ww_HEX1 [4] $end
$var wire 1 p! ww_HEX1 [3] $end
$var wire 1 q! ww_HEX1 [2] $end
$var wire 1 r! ww_HEX1 [1] $end
$var wire 1 s! ww_HEX1 [0] $end
$var wire 1 t! ww_HEX2 [6] $end
$var wire 1 u! ww_HEX2 [5] $end
$var wire 1 v! ww_HEX2 [4] $end
$var wire 1 w! ww_HEX2 [3] $end
$var wire 1 x! ww_HEX2 [2] $end
$var wire 1 y! ww_HEX2 [1] $end
$var wire 1 z! ww_HEX2 [0] $end
$var wire 1 {! ww_HEX3 [6] $end
$var wire 1 |! ww_HEX3 [5] $end
$var wire 1 }! ww_HEX3 [4] $end
$var wire 1 ~! ww_HEX3 [3] $end
$var wire 1 !" ww_HEX3 [2] $end
$var wire 1 "" ww_HEX3 [1] $end
$var wire 1 #" ww_HEX3 [0] $end
$var wire 1 $" ww_HEX4 [6] $end
$var wire 1 %" ww_HEX4 [5] $end
$var wire 1 &" ww_HEX4 [4] $end
$var wire 1 '" ww_HEX4 [3] $end
$var wire 1 (" ww_HEX4 [2] $end
$var wire 1 )" ww_HEX4 [1] $end
$var wire 1 *" ww_HEX4 [0] $end
$var wire 1 +" ww_HEX5 [6] $end
$var wire 1 ," ww_HEX5 [5] $end
$var wire 1 -" ww_HEX5 [4] $end
$var wire 1 ." ww_HEX5 [3] $end
$var wire 1 /" ww_HEX5 [2] $end
$var wire 1 0" ww_HEX5 [1] $end
$var wire 1 1" ww_HEX5 [0] $end
$var wire 1 2" ww_HEX6 [6] $end
$var wire 1 3" ww_HEX6 [5] $end
$var wire 1 4" ww_HEX6 [4] $end
$var wire 1 5" ww_HEX6 [3] $end
$var wire 1 6" ww_HEX6 [2] $end
$var wire 1 7" ww_HEX6 [1] $end
$var wire 1 8" ww_HEX6 [0] $end
$var wire 1 9" ww_HEX7 [6] $end
$var wire 1 :" ww_HEX7 [5] $end
$var wire 1 ;" ww_HEX7 [4] $end
$var wire 1 <" ww_HEX7 [3] $end
$var wire 1 =" ww_HEX7 [2] $end
$var wire 1 >" ww_HEX7 [1] $end
$var wire 1 ?" ww_HEX7 [0] $end
$var wire 1 @" \KEY[0]~input_o\ $end
$var wire 1 A" \KEY[1]~input_o\ $end
$var wire 1 B" \KEY[2]~input_o\ $end
$var wire 1 C" \KEY[3]~input_o\ $end
$var wire 1 D" \SW[8]~input_o\ $end
$var wire 1 E" \SW[9]~input_o\ $end
$var wire 1 F" \SW[10]~input_o\ $end
$var wire 1 G" \SW[11]~input_o\ $end
$var wire 1 H" \SW[12]~input_o\ $end
$var wire 1 I" \SW[13]~input_o\ $end
$var wire 1 J" \SW[14]~input_o\ $end
$var wire 1 K" \CLOCK_50~input_o\ $end
$var wire 1 L" \LEDR[0]~output_o\ $end
$var wire 1 M" \LEDR[1]~output_o\ $end
$var wire 1 N" \LEDR[2]~output_o\ $end
$var wire 1 O" \LEDR[3]~output_o\ $end
$var wire 1 P" \LEDR[4]~output_o\ $end
$var wire 1 Q" \LEDR[5]~output_o\ $end
$var wire 1 R" \LEDR[6]~output_o\ $end
$var wire 1 S" \LEDR[7]~output_o\ $end
$var wire 1 T" \LEDR[8]~output_o\ $end
$var wire 1 U" \LEDR[9]~output_o\ $end
$var wire 1 V" \LEDR[10]~output_o\ $end
$var wire 1 W" \LEDR[11]~output_o\ $end
$var wire 1 X" \LEDR[12]~output_o\ $end
$var wire 1 Y" \LEDR[13]~output_o\ $end
$var wire 1 Z" \LEDR[14]~output_o\ $end
$var wire 1 [" \LEDR[15]~output_o\ $end
$var wire 1 \" \LEDR[16]~output_o\ $end
$var wire 1 ]" \LEDR[17]~output_o\ $end
$var wire 1 ^" \LEDG[0]~output_o\ $end
$var wire 1 _" \LEDG[1]~output_o\ $end
$var wire 1 `" \LEDG[2]~output_o\ $end
$var wire 1 a" \LEDG[3]~output_o\ $end
$var wire 1 b" \LEDG[4]~output_o\ $end
$var wire 1 c" \LEDG[5]~output_o\ $end
$var wire 1 d" \LEDG[6]~output_o\ $end
$var wire 1 e" \LEDG[7]~output_o\ $end
$var wire 1 f" \HEX0[0]~output_o\ $end
$var wire 1 g" \HEX0[1]~output_o\ $end
$var wire 1 h" \HEX0[2]~output_o\ $end
$var wire 1 i" \HEX0[3]~output_o\ $end
$var wire 1 j" \HEX0[4]~output_o\ $end
$var wire 1 k" \HEX0[5]~output_o\ $end
$var wire 1 l" \HEX0[6]~output_o\ $end
$var wire 1 m" \HEX1[0]~output_o\ $end
$var wire 1 n" \HEX1[1]~output_o\ $end
$var wire 1 o" \HEX1[2]~output_o\ $end
$var wire 1 p" \HEX1[3]~output_o\ $end
$var wire 1 q" \HEX1[4]~output_o\ $end
$var wire 1 r" \HEX1[5]~output_o\ $end
$var wire 1 s" \HEX1[6]~output_o\ $end
$var wire 1 t" \HEX2[0]~output_o\ $end
$var wire 1 u" \HEX2[1]~output_o\ $end
$var wire 1 v" \HEX2[2]~output_o\ $end
$var wire 1 w" \HEX2[3]~output_o\ $end
$var wire 1 x" \HEX2[4]~output_o\ $end
$var wire 1 y" \HEX2[5]~output_o\ $end
$var wire 1 z" \HEX2[6]~output_o\ $end
$var wire 1 {" \HEX3[0]~output_o\ $end
$var wire 1 |" \HEX3[1]~output_o\ $end
$var wire 1 }" \HEX3[2]~output_o\ $end
$var wire 1 ~" \HEX3[3]~output_o\ $end
$var wire 1 !# \HEX3[4]~output_o\ $end
$var wire 1 "# \HEX3[5]~output_o\ $end
$var wire 1 ## \HEX3[6]~output_o\ $end
$var wire 1 $# \HEX4[0]~output_o\ $end
$var wire 1 %# \HEX4[1]~output_o\ $end
$var wire 1 &# \HEX4[2]~output_o\ $end
$var wire 1 '# \HEX4[3]~output_o\ $end
$var wire 1 (# \HEX4[4]~output_o\ $end
$var wire 1 )# \HEX4[5]~output_o\ $end
$var wire 1 *# \HEX4[6]~output_o\ $end
$var wire 1 +# \HEX5[0]~output_o\ $end
$var wire 1 ,# \HEX5[1]~output_o\ $end
$var wire 1 -# \HEX5[2]~output_o\ $end
$var wire 1 .# \HEX5[3]~output_o\ $end
$var wire 1 /# \HEX5[4]~output_o\ $end
$var wire 1 0# \HEX5[5]~output_o\ $end
$var wire 1 1# \HEX5[6]~output_o\ $end
$var wire 1 2# \HEX6[0]~output_o\ $end
$var wire 1 3# \HEX6[1]~output_o\ $end
$var wire 1 4# \HEX6[2]~output_o\ $end
$var wire 1 5# \HEX6[3]~output_o\ $end
$var wire 1 6# \HEX6[4]~output_o\ $end
$var wire 1 7# \HEX6[5]~output_o\ $end
$var wire 1 8# \HEX6[6]~output_o\ $end
$var wire 1 9# \HEX7[0]~output_o\ $end
$var wire 1 :# \HEX7[1]~output_o\ $end
$var wire 1 ;# \HEX7[2]~output_o\ $end
$var wire 1 <# \HEX7[3]~output_o\ $end
$var wire 1 =# \HEX7[4]~output_o\ $end
$var wire 1 ># \HEX7[5]~output_o\ $end
$var wire 1 ?# \HEX7[6]~output_o\ $end
$var wire 1 @# \SW[0]~input_o\ $end
$var wire 1 A# \SW[1]~input_o\ $end
$var wire 1 B# \SW[2]~input_o\ $end
$var wire 1 C# \SW[3]~input_o\ $end
$var wire 1 D# \SW[4]~input_o\ $end
$var wire 1 E# \SW[5]~input_o\ $end
$var wire 1 F# \SW[6]~input_o\ $end
$var wire 1 G# \SW[7]~input_o\ $end
$var wire 1 H# \SW[15]~input_o\ $end
$var wire 1 I# \SW[16]~input_o\ $end
$var wire 1 J# \SW[17]~input_o\ $end
$upscope $end
$upscope $end
$enddefinitions $end
#0
$dumpvars
0!
0,!
1-!
x.!
1/!
10!
11!
12!
13!
14!
0K!
0@"
0A"
0B"
0C"
0D"
0E"
0F"
0G"
0H"
0I"
0J"
0K"
0L"
0M"
0N"
0O"
0P"
0Q"
0R"
0S"
0T"
0U"
0V"
0W"
0X"
0Y"
0Z"
0["
0\"
0]"
0^"
0_"
0`"
0a"
0b"
0c"
0d"
0e"
1f"
1g"
1h"
1i"
1j"
1k"
1l"
1m"
1n"
1o"
1p"
1q"
1r"
1s"
0t"
0u"
0v"
0w"
0x"
0y"
1z"
0{"
0|"
0}"
0~"
0!#
0"#
1##
0$#
0%#
0&#
0'#
0(#
0)#
1*#
0+#
0,#
0-#
0.#
0/#
00#
11#
02#
03#
04#
05#
06#
07#
18#
09#
0:#
0;#
0<#
0=#
0>#
1?#
0@#
0A#
0B#
0C#
0D#
0E#
0F#
0G#
0H#
0I#
0J#
0Z
0[
0\
0]
0x
0y
0z
0{
0|
0}
0~
0!!
0"!
0#!
0$!
0%!
0&!
0'!
0(!
0)!
0*!
0+!
0f
0g
0h
0i
0j
0k
0l
0m
0n
0o
0p
0q
0r
0s
0t
0u
0v
0w
0^
0_
0`
0a
0b
0c
0d
0e
1"
1#
1$
1%
1&
1'
1(
1)
1*
1+
1,
1-
1.
1/
10
01
02
03
04
05
06
17
08
09
0:
0;
0<
0=
1>
0?
0@
0A
0B
0C
0D
1E
0F
0G
0H
0I
0J
0K
1L
0M
0N
0O
0P
0Q
0R
1S
0T
0U
0V
0W
0X
0Y
05!
06!
07!
08!
09!
0:!
0;!
0<!
0=!
0>!
0?!
0@!
0A!
0B!
0C!
0D!
0E!
0F!
0G!
0H!
0I!
0J!
0L!
0M!
0N!
0O!
0P!
0Q!
0R!
0S!
0T!
0U!
0V!
0W!
0X!
0Y!
0Z!
0[!
0\!
0]!
0^!
0_!
0`!
0a!
0b!
0c!
0d!
0e!
1f!
1g!
1h!
1i!
1j!
1k!
1l!
1m!
1n!
1o!
1p!
1q!
1r!
1s!
1t!
0u!
0v!
0w!
0x!
0y!
0z!
1{!
0|!
0}!
0~!
0!"
0""
0#"
1$"
0%"
0&"
0'"
0("
0)"
0*"
1+"
0,"
0-"
0."
0/"
00"
01"
12"
03"
04"
05"
06"
07"
08"
19"
0:"
0;"
0<"
0="
0>"
0?"
$end
#20000
1!
1K!
1K"
#40000
0!
0K!
0K"
#60000
1!
1K!
1K"
#80000
0!
0K!
0K"
#100000
1!
1K!
1K"
#120000
0!
0K!
0K"
#140000
1!
1K!
1K"
#160000
0!
0K!
0K"
#180000
1!
1K!
1K"
#200000
0!
0K!
0K"
#220000
1!
1K!
1K"
#240000
0!
0K!
0K"
#260000
1!
1K!
1K"
#280000
0!
0K!
0K"
#300000
1!
1K!
1K"
#320000
0!
0K!
0K"
#340000
1!
1K!
1K"
#360000
0!
0K!
0K"
#380000
1!
1K!
1K"
#400000
0!
0K!
0K"
#420000
1!
1K!
1K"
#440000
0!
0K!
0K"
#460000
1!
1K!
1K"
#480000
0!
0K!
0K"
#500000
1!
1K!
1K"
#520000
0!
0K!
0K"
#540000
1!
1K!
1K"
#560000
0!
0K!
0K"
#580000
1!
1K!
1K"
#600000
0!
0K!
0K"
#620000
1!
1K!
1K"
#640000
0!
0K!
0K"
#660000
1!
1K!
1K"
#680000
0!
0K!
0K"
#700000
1!
1K!
1K"
#720000
0!
0K!
0K"
#740000
1!
1K!
1K"
#760000
0!
0K!
0K"
#780000
1!
1K!
1K"
#800000
0!
0K!
0K"
#820000
1!
1K!
1K"
#840000
0!
0K!
0K"
#860000
1!
1K!
1K"
#880000
0!
0K!
0K"
#900000
1!
1K!
1K"
#920000
0!
0K!
0K"
#940000
1!
1K!
1K"
#960000
0!
0K!
0K"
#980000
1!
1K!
1K"
